…
    result = map(model, ~ broom::tidy(.x))
  ) %>% 
  unnest(result) %>% 
  filter(term == "victim_sexMale") %>% 
  mutate(
    or       = exp(estimate),
    conf.low = exp(estimate - 1.96 * std.error),
    conf.high= exp(estimate + 1.96 * std.error)
  ) %>% 
  select(city_state, or, conf.low, conf.high) %>% 
  ungroup()
cityor
```

    ## # A tibble: 47 × 4
    ##    city_state         or conf.low conf.high
    ##    <chr>           <dbl>    <dbl>     <dbl>
    ##  1 Albuquerque, NM 1.77     0.831     3.76 
    ##  2 Atlanta, GA     1.00     0.684     1.46 
    ##  3 Baltimore, MD   0.426    0.325     0.558
    ##  4 Baton Rouge, LA 0.381    0.209     0.695
    ##  5 Birmingham, AL  0.870    0.574     1.32 
    ##  6 Boston, MA      0.674    0.356     1.28 
    ##  7 Buffalo, NY     0.521    0.290     0.935
    ##  8 Charlotte, NC   0.884    0.557     1.40 
    ##  9 Chicago, IL     0.410    0.336     0.501
    ## 10 Cincinnati, OH  0.400    0.236     0.677
    ## # ℹ 37 more rows
…
library(broom)
data("weather_df")
set.seed(1234)
boot = weather_df %>%
  modelr::bootstrap(n = 5000)
  model1 = boot %>%
  mutate(
    model = map(strap, \(df) lm(tmax ~ tmin + prcp, data = df)),
    glancedata = map(model, \(m) broom::glance(m)),
    tidydata   = map(model, \(m) broom::tidy(m))
  )
boot
```

    ## # A tibble: 5,000 × 2
    ##    strap                  .id  
    ##    <list>                 <chr>
    ##  1 <resample [2,190 x 6]> 0001 
    ##  2 <resample [2,190 x 6]> 0002 
    ##  3 <resample [2,190 x 6]> 0003 
    ##  4 <resample [2,190 x 6]> 0004 
    ##  5 <resample [2,190 x 6]> 0005 
    ##  6 <resample [2,190 x 6]> 0006 
    ##  7 <resample [2,190 x 6]> 0007 
    ##  8 <resample [2,190 x 6]> 0008 
    ##  9 <resample [2,190 x 6]> 0009 
    ## 10 <resample [2,190 x 6]> 0010 
    ## # ℹ 4,990 more rows

``` r
rsqdata = model1 %>%
  select(.id, glancedata) %>%
  unnest(glancedata) %>%
  select(.id, r.squared)
rsqdata
```

    ## # A tibble: 5,000 × 2
    ##    .id   r.squared
    ##    <chr>     <dbl>
    ##  1 0001      0.943
    ##  2 0002      0.944
    ##  3 0003      0.936
    ##  4 0004      0.932
    ##  5 0005      0.944
    ##  6 0006      0.938
    ##  7 0007      0.944
    ##  8 0008      0.936
    ##  9 0009      0.938
    ## 10 0010      0.934
    ## # ℹ 4,990 more rows
…
  unnest(tidydata) %>%
  group_by(.id) %>%
  summarize(
      ratio = { 
      b1 = estimate[term == "tmin"] 
      b2 = estimate[term == "prcp"]   
      b1 / b2               
    }
  )
result = rsqdata %>%
  inner_join(betaratio, by = ".id")
result
```

    ## # A tibble: 5,000 × 3
    ##    .id   r.squared ratio
    ##    <chr>     <dbl> <dbl>
    ##  1 0001      0.943 -124.
    ##  2 0002      0.944 -279.
    ##  3 0003      0.936 -149.
    ##  4 0004      0.932 -173.
    ##  5 0005      0.944 -155.
    ##  6 0006      0.938 -139.
    ##  7 0007      0.944 -247.
    ##  8 0008      0.936 -265.
    ##  9 0009      0.938 -177.
    ## 10 0010      0.934 -225.
    ## # ℹ 4,990 more rows
…
